…
kbp2013_2017_props_per_year
#> # A tibble: 198 x 7
#>    event_year state     n state_name  year  population  prop
#>         <dbl> <chr> <int> <chr>       <chr>      <dbl> <dbl>
#>  1      2013. AK        2 Alaska      2014     736705.  2.71
#>  2      2013. AL       14 Alabama     2013    4829479.  2.90
#>  3      2013. AR        9 Arkansas    2016    2988248.  3.01
#>  4      2013. AZ       33 Arizona     2015    6817565.  4.84
#>  5      2013. CO       15 Colorado    2013    5267603.  2.85
#>  6      2013. CT        9 Connecticut 2014    3591873.  2.51
#>  7      2013. DE        2 Delaware    2015     944076.  2.12
#>  8      2013. FL       65 Florida     2016   20612439.  3.15
#>  9      2013. HI        3 Hawaii      2013    1406481.  2.13
#> 10      2013. ID        2 Idaho       2014    1633532.  1.22
#> # ... with 188 more rows
```
…
